{
    "swagger": "2.0",
    "info": {
        "description": "This is a doc for Go Assignment.",
        "title": "Go Assignment",
        "termsOfService": "http://swagger.io/terms/",
        "contact": {
            "name": "API Support",
            "url": "http://www.swagger.io/support",
            "email": "bismobaruno@gmail.com"
        },
        "license": {
            "name": "Apache 2.0",
            "url": "http://www.apache.org/licenses/LICENSE-2.0.html"
        },
        "version": "1.0.0"
    },
    "basePath": "/",
    "paths": {
        "/fight": {
            "post": {
                "description": "fight knights data",
                "consumes": [
                    "application/json"
                ],
                "produces": [
                    "application/json"
                ],
                "summary": "Fight Knights",
                "parameters": [
                    {
                        "description": "Request Payload",
                        "name": "body",
                        "in": "body",
                        "required": true,
                        "schema": {
                            "$ref": "#/definitions/request.FightRequest"
                        }
                    }
                ],
                "responses": {
                    "200": {
                        "description": "OK",
                        "schema": {
                            "$ref": "#/definitions/response.Player"
                        }
                    },
                    "400": {
                        "description": "Bad Request",
                        "schema": {
                            "$ref": "#/definitions/response.Error"
                        }
                    },
                    "404": {
                        "description": "Not Found",
                        "schema": {
                            "$ref": "#/definitions/response.Error"
                        }
                    },
                    "500": {
                        "description": "Internal Server Error",
                        "schema": {
                            "$ref": "#/definitions/response.Error"
                        }
                    }
                }
            }
        },
        "/knight": {
            "get": {
                "description": "get list all knights data",
                "produces": [
                    "application/json"
                ],
                "summary": "List All Knights",
                "responses": {
                    "200": {
                        "description": "OK",
                        "schema": {
                            "type": "array",
                            "items": {
                                "$ref": "#/definitions/response.Knight"
                            }
                        }
                    },
                    "500": {
                        "description": "Internal Server Error",
                        "schema": {
                            "$ref": "#/definitions/response.Error"
                        }
                    }
                }
            },
            "post": {
                "description": "create knight data",
                "consumes": [
                    "application/json"
                ],
                "produces": [
                    "application/json"
                ],
                "summary": "Create Knight",
                "parameters": [
                    {
                        "description": "Request Payload",
                        "name": "body",
                        "in": "body",
                        "required": true,
                        "schema": {
                            "$ref": "#/definitions/request.KnightRequest"
                        }
                    }
                ],
                "responses": {
                    "201": {
                        "description": "Created",
                        "schema": {
                            "$ref": "#/definitions/response.Knight"
                        }
                    },
                    "400": {
                        "description": "Bad Request",
                        "schema": {
                            "$ref": "#/definitions/response.Error"
                        }
                    },
                    "500": {
                        "description": "Internal Server Error",
                        "schema": {
                            "$ref": "#/definitions/response.Error"
                        }
                    }
                }
            }
        },
        "/knight/{id}": {
            "get": {
                "description": "get knight data",
                "produces": [
                    "application/json"
                ],
                "summary": "Get Knight",
                "parameters": [
                    {
                        "type": "string",
                        "description": "Knight ID",
                        "name": "id",
                        "in": "path",
                        "required": true
                    }
                ],
                "responses": {
                    "200": {
                        "description": "OK",
                        "schema": {
                            "$ref": "#/definitions/response.Knight"
                        }
                    },
                    "404": {
                        "description": "Not Found",
                        "schema": {
                            "$ref": "#/definitions/response.Error"
                        }
                    },
                    "500": {
                        "description": "Internal Server Error",
                        "schema": {
                            "$ref": "#/definitions/response.Error"
                        }
                    }
                }
            }
        },
        "/ping": {
            "get": {
                "description": "get service status",
                "produces": [
                    "application/json"
                ],
                "summary": "Ping",
                "responses": {
                    "200": {
                        "description": "OK",
                        "schema": {
                            "$ref": "#/definitions/response.Ping"
                        }
                    }
                }
            }
        }
    },
    "definitions": {
        "request.FightRequest": {
            "type": "object",
            "properties": {
                "fighter_1_id": {
                    "type": "string"
                },
                "fighter_2_id": {
                    "type": "string"
                }
            }
        },
        "request.KnightRequest": {
            "type": "object",
            "properties": {
                "name": {
                    "type": "string"
                },
                "strength": {
                    "type": "integer"
                },
                "weapon_power": {
                    "type": "integer"
                }
            }
        },
        "response.Error": {
            "type": "object",
            "properties": {
                "code": {
                    "type": "integer"
                },
                "message": {
                    "type": "string"
                }
            }
        },
        "response.Knight": {
            "type": "object",
            "properties": {
                "id": {
                    "type": "string"
                },
                "name": {
                    "type": "string"
                },
                "strength": {
                    "type": "integer"
                },
                "weapon_power": {
                    "type": "integer"
                }
            }
        },
        "response.Ping": {
            "type": "object",
            "properties": {
                "message": {
                    "type": "string"
                },
                "start_time": {
                    "type": "string"
                }
            }
        },
        "response.Player": {
            "type": "object",
            "properties": {
                "id": {
                    "type": "string"
                },
                "strength": {
                    "type": "number"
                }
            }
        }
    }
}